^C:\USERS\HOME\SOURCE\REPOS\PROJECT11\SOURCE.CPP
C:\USERS\HOME\SOURCE\REPOS\PROJECT11\DEBUG\VC142.PDB
C:\USERS\HOME\SOURCE\REPOS\PROJECT11\DEBUG\VC142.IDB
C:\USERS\HOME\SOURCE\REPOS\PROJECT11\DEBUG\SOURCE.OBJ
